Modelling of the count of reported cases of Malaria in Loreto
…
tibble::tibble(
  model = row.names(aic_sixth_step),
  aic_sixth_step
) %>% 
  dplyr::arrange(AIC)

## # A tibble: 21 x 3
##    model                       df    AIC
##    <chr>                    <dbl>  <dbl>
##  1 vivax_gam_nb_s_full$mer     22 75319.
##  2 vivax_gam_nb_s_45326$mer    19 75319.
##  3 vivax_gam_nb_s_4532$mer     16 75336.
##  4 vivax_gam_nb_s_4531$mer     16 75338.
##  5 vivax_gam_nb_s_45321$mer    19 75341.
##  6 vivax_gam_nb_s_4536$mer     16 75347.
##  7 vivax_gam_nb_s_453$mer      13 75356.
##  8 vivax_gam_nb_s_452$mer      13 75370.
##  9 vivax_gam_nb_s_451$mer      13 75394.
## 10 vivax_gam_nb_s_456$mer      13 75440.
## # ... with 11 more rows
…
tibble::tibble(
  model = row.names(aic_final_step),
  aic_final_step
) %>% 
  dplyr::arrange(AIC)

## # A tibble: 24 x 3
##    model                       df    AIC
##    <chr>                    <dbl>  <dbl>
##  1 vivax_gam_nb_s_45216$mer    19 75314.
##  2 vivax_gam_nb_s_full$mer     22 75319.
##  3 vivax_gam_nb_s_45326$mer    19 75319.
##  4 vivax_gam_nb_s_4532$mer     16 75336.
##  5 vivax_gam_nb_s_4531$mer     16 75338.
##  6 vivax_gam_nb_s_4521$mer     16 75339.
##  7 vivax_gam_nb_s_45321$mer    19 75341.
##  8 vivax_gam_nb_s_4536$mer     16 75347.
##  9 vivax_gam_nb_s_4526$mer     16 75354.
## 10 vivax_gam_nb_s_453$mer      13 75356.
## # ... with 14 more rows
…
