Time-varying coefficient models
…
Data wrangling

dat <- tibble::tibble(df_malaria_loreto)

dat

## # A tibble: 10,584 x 12
##    district  year month falciparum vivax   aet  prcp     q  tmax  tmin pop2015
##    <fct>    <int> <int>      <int> <int> <dbl> <dbl> <dbl> <dbl> <dbl>   <int>
##  1 ALTO NA~  2000     1          2    42  90.8  227. 136.   31.0  21.7    2784
##  2 ALTO NA~  2000     2          2    40  82.1  278. 196.   31.0  21.5    2784
##  3 ALTO NA~  2000     3          2    21  66.8  358. 291.   30.4  21.3    2784
##  4 ALTO NA~  2000     4          0     3  61.8  334. 272.   30.0  20.8    2784
##  5 ALTO NA~  2000     5          3    15  70.0  380. 310.   30.0  21.3    2784
##  6 ALTO NA~  2000     6          1     0  67.1  163.  96.1  30.2  21.1    2784
##  7 ALTO NA~  2000     7          2     4  78.1  155.  76.9  29.2  19.8    2784
##  8 ALTO NA~  2000     8         11     1  86.2  314. 228.   31.1  20.7    2784
##  9 ALTO NA~  2000     9          6     2  89.4  340. 250.   31.6  20.7    2784
## 10 ALTO NA~  2000    10         12     4  92.0  149.  56.8  31.4  21.6    2784
## # ... with 10,574 more rows, and 1 more variable: time <int>

dat_scaled <- dplyr::mutate(
  dat,
  aet   = scales::rescale(aet,  to = c(0, 1)),
  prcp  = scales::rescale(prcp, to = c(0, 1)),
  q     = scales::rescale(q,    to = c(0, 1)),
  tmax  = scales::rescale(tmax, to = c(0, 1)),
  tmin  = scales::rescale(tmin, to = c(0, 1)),
)

dat_scaled

## # A tibble: 10,584 x 12
##    district  year month falciparum vivax   aet  prcp      q  tmax  tmin pop2015
##    <fct>    <int> <int>      <int> <int> <dbl> <dbl>  <dbl> <dbl> <dbl>   <int>
##  1 ALTO NA~  2000     1          2    42 0.638 0.267 0.184  0.501 0.540    2784
##  2 ALTO NA~  2000     2          2    40 0.524 0.331 0.264  0.492 0.521    2784
##  3 ALTO NA~  2000     3          2    21 0.324 0.431 0.393  0.419 0.493    2784
##  4 ALTO NA~  2000     4          0     3 0.257 0.401 0.367  0.381 0.415    2784
##  5 ALTO NA~  2000     5          3    15 0.365 0.459 0.418  0.372 0.490    2784
##  6 ALTO NA~  2000     6          1     0 0.327 0.187 0.129  0.399 0.465    2784
##  7 ALTO NA~  2000     7          2     4 0.472 0.177 0.103  0.277 0.286    2784
##  8 ALTO NA~  2000     8         11     1 0.577 0.376 0.307  0.511 0.405    2784
##  9 ALTO NA~  2000     9          6     2 0.620 0.409 0.338  0.571 0.401    2784
## 10 ALTO NA~  2000    10         12     4 0.654 0.169 0.0760 0.551 0.522    2784
## # ... with 10,574 more rows, and 1 more variable: time <int>
…
dat_lagged <- na.omit(dat_lagged)

dat_lagged$ln_pop2015 <- log(dat_lagged$pop2015)

dat_lagged

## # A tibble: 10,572 x 33
##    district  year month falciparum vivax   aet  prcp      q  tmax  tmin pop2015
##    <fct>    <int> <int>      <int> <int> <dbl> <dbl>  <dbl> <dbl> <dbl>   <int>
##  1 ALTO NA~  2001     1          6     2 0.214 0.414 0.386  0.387 0.411    2784
##  2 ALTO NA~  2001     2          3     1 0.296 0.256 0.207  0.469 0.495    2784
##  3 ALTO NA~  2001     3          5     4 0.298 0.500 0.470  0.434 0.511    2784
##  4 ALTO NA~  2001     4          2     2 0.325 0.252 0.200  0.451 0.494    2784
##  5 ALTO NA~  2001     5         13     0 0.313 0.253 0.202  0.389 0.509    2784
##  6 ALTO NA~  2001     6          7     1 0.329 0.217 0.162  0.285 0.335    2784
##  7 ALTO NA~  2001     7          8    20 0.392 0.229 0.168  0.342 0.360    2784
##  8 ALTO NA~  2001     8          6     4 0.565 0.173 0.0895 0.511 0.405    2784
##  9 ALTO NA~  2001     9          8     5 0.547 0.195 0.115  0.567 0.398    2784
## 10 ALTO NA~  2001    10          8     3 0.551 0.501 0.445  0.580 0.555    2784
## # ... with 10,562 more rows, and 22 more variables: time <int>, aet_lag1 <dbl>,
## #   prcp_lag1 <dbl>, q_lag1 <dbl>, tmax_lag1 <dbl>, tmin_lag1 <dbl>,
## #   aet_lag3 <dbl>, prcp_lag3 <dbl>, q_lag3 <dbl>, tmax_lag3 <dbl>,
## #   tmin_lag3 <dbl>, aet_lag6 <dbl>, prcp_lag6 <dbl>, q_lag6 <dbl>,
## #   tmax_lag6 <dbl>, tmin_lag6 <dbl>, aet_lag12 <dbl>, prcp_lag12 <dbl>,
## #   q_lag12 <dbl>, tmax_lag12 <dbl>, tmin_lag12 <dbl>, ln_pop2015 <dbl>
…
  show(p)
}

tvcm_10_terms <- c("Precipitation", "Max Temperature")

df_tvcm_10 <- get_tvcoef(
  plot_vivax_tvcm_10, 
  plot_falciparum_tvcm_10, 
  tvcm_10_terms
)

df_tvcm_10

## # A tibble: 2,000 x 5
##    x                      se fit[,1] term          specie  
##    <dttm>              <dbl>   <dbl> <fct>         <fct>   
##  1 2000-01-01 00:00:00  1.55   1.43  Precipitation P. vivax
##  2 2000-01-14 02:44:29  1.48   1.34  Precipitation P. vivax
##  3 2000-01-27 05:28:58  1.41   1.25  Precipitation P. vivax
##  4 2000-02-09 08:13:28  1.35   1.15  Precipitation P. vivax
##  5 2000-02-22 10:57:57  1.29   1.06  Precipitation P. vivax
##  6 2000-03-06 13:42:26  1.23   0.971 Precipitation P. vivax
##  7 2000-03-19 16:26:56  1.17   0.880 Precipitation P. vivax
##  8 2000-04-01 19:11:25  1.12   0.788 Precipitation P. vivax
##  9 2000-04-14 21:55:54  1.08   0.696 Precipitation P. vivax
## 10 2000-04-28 00:40:24  1.04   0.604 Precipitation P. vivax
## # ... with 1,990 more rows
…
df_tvcm_10 %>% 
  dplyr::group_by(term, period, specie) %>% 
  dplyr::slice_min(fit, n = 1) -> df_tvcm_10_min

df_tvcm_10_max$extrema <- rep("max", length(df_tvcm_10_max$fit))
df_tvcm_10_min$extrema <- rep("min", length(df_tvcm_10_min$fit))

df_tvcm_10_extrema <- dplyr::bind_rows(df_tvcm_10_max, df_tvcm_10_min)

df_tvcm_10_extrema$ci <- apply(df_tvcm_10_extrema[, c("fit", "se")], 1, get_ci)

df_tvcm_10_extrema

## # A tibble: 24 x 8
## # Groups:   term, period, specie [12]
##    x                      se fit[,1] term      specie   period extrema ci       
##    <dttm>              <dbl>   <dbl> <fct>     <fct>    <fct>  <chr>   <chr>    
##  1 2000-01-01 00:00:00 1.55    1.43  Precipit~ P. vivax before max     1.43 [-0~
##  2 2000-01-01 00:00:00 1.83    2.30  Precipit~ P. falc~ before max     2.3 [0.4~
##  3 2006-09-18 08:39:26 0.472   0.238 Precipit~ P. vivax during max     0.24 [-0~
##  4 2007-02-22 17:33:18 0.582  -0.165 Precipit~ P. falc~ during max     -0.16 [-~
##  5 2017-12-01 00:00:00 1.94    3.02  Precipit~ P. vivax after  max     3.02 [1.~
##  6 2017-12-01 00:00:00 2.48    4.24  Precipit~ P. falc~ after  max     4.24 [1.~
##  7 2005-03-03 10:46:24 0.673   0.664 Max Temp~ P. vivax before max     0.66 [-0~
##  8 2002-04-19 07:27:17 0.836   0.866 Max Temp~ P. falc~ before max     0.87 [0.~
##  9 2009-05-02 16:47:08 0.781   0.997 Max Temp~ P. vivax during max     1 [0.22,~
## 10 2006-05-10 05:14:32 0.891  -1.06  Max Temp~ P. falc~ during max     -1.06 [-~
## # ... with 14 more rows
…
